^E:\EXAMEN UNREAL\UNREAL_ENGINE_EXAM\PREGUNTA08\RESPUESTA08\RESPUESTA08\ENEMYATTACK.CPP
/c /ZI /JMC /nologo /W3 /WX- /diagnostics:column /sdl /Od /Oy- /D WIN32 /D _DEBUG /D _CONSOLE /D _UNICODE /D UNICODE /Gm- /EHsc /RTC1 /MDd /GS /fp:precise /permissive- /Zc:wchar_t /Zc:forScope /Zc:inline /Fo"DEBUG\\" /Fd"DEBUG\VC142.PDB" /Gd /TP /analyze- /FC E:\EXAMEN UNREAL\UNREAL_ENGINE_EXAM\PREGUNTA08\RESPUESTA08\RESPUESTA08\ENEMYATTACK.CPP
^E:\EXAMEN UNREAL\UNREAL_ENGINE_EXAM\PREGUNTA08\RESPUESTA08\RESPUESTA08\ORQUESTRA.CPP
/c /ZI /JMC /nologo /W3 /WX- /diagnostics:column /sdl /Od /Oy- /D WIN32 /D _DEBUG /D _CONSOLE /D _UNICODE /D UNICODE /Gm- /EHsc /RTC1 /MDd /GS /fp:precise /permissive- /Zc:wchar_t /Zc:forScope /Zc:inline /Fo"DEBUG\\" /Fd"DEBUG\VC142.PDB" /Gd /TP /analyze- /FC E:\EXAMEN UNREAL\UNREAL_ENGINE_EXAM\PREGUNTA08\RESPUESTA08\RESPUESTA08\ORQUESTRA.CPP
^E:\EXAMEN UNREAL\UNREAL_ENGINE_EXAM\PREGUNTA08\RESPUESTA08\RESPUESTA08\ENEMY.CPP
/c /ZI /JMC /nologo /W3 /WX- /diagnostics:column /sdl /Od /Oy- /D WIN32 /D _DEBUG /D _CONSOLE /D _UNICODE /D UNICODE /Gm- /EHsc /RTC1 /MDd /GS /fp:precise /permissive- /Zc:wchar_t /Zc:forScope /Zc:inline /Fo"DEBUG\\" /Fd"DEBUG\VC142.PDB" /Gd /TP /analyze- /FC E:\EXAMEN UNREAL\UNREAL_ENGINE_EXAM\PREGUNTA08\RESPUESTA08\RESPUESTA08\ENEMY.CPP
^E:\EXAMEN UNREAL\UNREAL_ENGINE_EXAM\PREGUNTA08\RESPUESTA08\RESPUESTA08\RESPUESTA08.CPP
/c /ZI /JMC /nologo /W3 /WX- /diagnostics:column /sdl /Od /Oy- /D WIN32 /D _DEBUG /D _CONSOLE /D _UNICODE /D UNICODE /Gm- /EHsc /RTC1 /MDd /GS /fp:precise /permissive- /Zc:wchar_t /Zc:forScope /Zc:inline /Fo"DEBUG\\" /Fd"DEBUG\VC142.PDB" /Gd /TP /analyze- /FC E:\EXAMEN UNREAL\UNREAL_ENGINE_EXAM\PREGUNTA08\RESPUESTA08\RESPUESTA08\RESPUESTA08.CPP
^E:\EXAMEN UNREAL\UNREAL_ENGINE_EXAM\PREGUNTA08\RESPUESTA08\RESPUESTA08\ORQUESTA.CPP
/c /ZI /JMC /nologo /W3 /WX- /diagnostics:column /sdl /Od /Oy- /D WIN32 /D _DEBUG /D _CONSOLE /D _UNICODE /D UNICODE /Gm- /EHsc /RTC1 /MDd /GS /fp:precise /permissive- /Zc:wchar_t /Zc:forScope /Zc:inline /Fo"DEBUG\\" /Fd"DEBUG\VC142.PDB" /Gd /TP /analyze- /FC E:\EXAMEN UNREAL\UNREAL_ENGINE_EXAM\PREGUNTA08\RESPUESTA08\RESPUESTA08\ORQUESTA.CPP
